<svg xmlns="http://www.w3.org/2000/svg" width="17.033" height="10.145" viewBox="0 0 17.033 10.145">
  <path id="expand_more" d="M18.652,23.892a1.387,1.387,0,0,1-.594-.126,2.307,2.307,0,0,1-.521-.342l-6.977-6.977a1.451,1.451,0,0,1-.413-1.115,1.571,1.571,0,0,1,.45-1.114,1.438,1.438,0,0,1,1.132-.468,1.645,1.645,0,0,1,1.1.5l5.826,5.791,5.826-5.826a1.682,1.682,0,0,1,1.132-.45,1.331,1.331,0,0,1,1.1.485,1.282,1.282,0,0,1,.468,1.1,1.76,1.76,0,0,1-.468,1.133l-6.941,6.941a2.163,2.163,0,0,1-.539.342A1.427,1.427,0,0,1,18.652,23.892Z" transform="translate(-10.145 -13.747)" fill="#404040"/>
</svg>
