<svg xmlns="http://www.w3.org/2000/svg" width="37" height="37" viewBox="0 0 37 37">
  <g id="Group_1261" data-name="Group 1261" transform="translate(15820 -96)">
    <g id="Group_1260" data-name="Group 1260" transform="translate(-17265 3)">
      <path id="Ellipse_143" data-name="Ellipse 143" d="M15.5,0A15.5,15.5,0,1,0,31,15.5,15.5,15.5,0,0,0,15.5,0m0-3A18.5,18.5,0,0,1,28.581,28.581,18.5,18.5,0,1,1,8.3-1.545,18.387,18.387,0,0,1,15.5-3Z" transform="translate(1448 96)" fill="#ffffff"/>
      <path id="linkedin-in-brands_1_" data-name="linkedin-in-brands(1)" d="M3.318,14.831H.245v-9.9H3.318ZM1.78,3.586a1.788,1.788,0,1,1,1.78-1.8A1.8,1.8,0,0,1,1.78,3.586ZM14.818,14.831H11.752V10.014c0-1.148-.023-2.62-1.6-2.62-1.6,0-1.842,1.247-1.842,2.538v4.9H5.243v-9.9H8.19v1.35h.043a3.229,3.229,0,0,1,2.907-1.6c3.11,0,3.682,2.048,3.682,4.708v5.436Z" transform="translate(1456.649 103.275)" fill="#fffff"/>
    </g>
  </g>
</svg>
