<svg xmlns="http://www.w3.org/2000/svg" xmlns:xlink="http://www.w3.org/1999/xlink" width="44.427" height="44.416" viewBox="0 0 44.427 44.416">
  <defs>
    <clipPath id="clip-path">
      <path id="Path_1563" data-name="Path 1563" d="M275.733-30.041h44.426V-74.457H275.733Z" fill="#fff"/>
    </clipPath>
  </defs>
  <g id="Group_2063" data-name="Group 2063" transform="translate(-275.733 74.457)" clip-path="url(#clip-path)">
    <g id="Group_2062" data-name="Group 2062" transform="translate(275.733 -74.457)">
      <path id="Path_1562" data-name="Path 1562" d="M-29.886-29.886h-9.191V-44.321c0-3.44-.069-7.852-4.788-7.852-4.789,0-5.522,3.738-5.522,7.6v14.683h-9.2V-59.54h8.833v4.045h.129a9.678,9.678,0,0,1,8.714-4.788c9.319,0,11.035,6.137,11.035,14.108v16.29Zm-39.082-33.7A5.378,5.378,0,0,1-74.3-68.968,5.336,5.336,0,0,1-68.968-74.3a5.336,5.336,0,0,1,5.334,5.334,5.378,5.378,0,0,1-5.334,5.384m4.61,33.7h-9.211V-59.54h9.211Z" transform="translate(74.302 74.302)" fill="#fff"/>
    </g>
  </g>
</svg>
